^E:\PROGETPROGRAM\PROJETSAUVÉ\AMGT32MXDELTABOX_CODITHECK\AMGT32MXDELTABOX_CODITHECK\AMGTPROPRIETEFORM.RESX|E:\PROGETPROGRAM\PROJETSAUVÉ\AMGT32MXDELTABOX_CODITHECK\AMGT32MXDELTABOX_CODITHECK\FORM1.RESX|E:\PROGETPROGRAM\PROJETSAUVÉ\AMGT32MXDELTABOX_CODITHECK\AMGT32MXDELTABOX_CODITHECK\MESSAGEFORM.RESX|E:\PROGETPROGRAM\PROJETSAUVÉ\AMGT32MXDELTABOX_CODITHECK\AMGT32MXDELTABOX_CODITHECK\OPTIONANSFORM.RESX|E:\PROGETPROGRAM\PROJETSAUVÉ\AMGT32MXDELTABOX_CODITHECK\AMGT32MXDELTABOX_CODITHECK\PROPERTIES\RESOURCES.RESX|E:\PROGETPROGRAM\PROJETSAUVÉ\AMGT32MXDELTABOX_CODITHECK\AMGT32MXDELTABOX_CODITHECK\WELLCOMEFORM.RESX
E:\PROGETPROGRAM\PROJETSAUVé\AMGT32MXDELTABOX_CODITHECK\AMGT32MXDELTABOX_CODITHECK\OBJ\X86\DEBUG\AMGT32MXDELTABOX_CODITHECK.AMGTPROPRIETEFORM.RESOURCES
E:\PROGETPROGRAM\PROJETSAUVé\AMGT32MXDELTABOX_CODITHECK\AMGT32MXDELTABOX_CODITHECK\OBJ\X86\DEBUG\AMGT32MXDELTABOX_CODITHECK.MXDELTABOXFORM.RESOURCES
E:\PROGETPROGRAM\PROJETSAUVé\AMGT32MXDELTABOX_CODITHECK\AMGT32MXDELTABOX_CODITHECK\OBJ\X86\DEBUG\AMGT32MXDELTABOX_CODITHECK.MESSAGEFORM.RESOURCES
E:\PROGETPROGRAM\PROJETSAUVé\AMGT32MXDELTABOX_CODITHECK\AMGT32MXDELTABOX_CODITHECK\OBJ\X86\DEBUG\AMGT32MXDELTABOX_CODITHECK.OPTIONANSFORM.RESOURCES
E:\PROGETPROGRAM\PROJETSAUVé\AMGT32MXDELTABOX_CODITHECK\AMGT32MXDELTABOX_CODITHECK\OBJ\X86\DEBUG\AMGT32MXDELTABOX_CODITHECK.PROPERTIES.RESOURCES.RESOURCES
E:\PROGETPROGRAM\PROJETSAUVé\AMGT32MXDELTABOX_CODITHECK\AMGT32MXDELTABOX_CODITHECK\OBJ\X86\DEBUG\AMGT32MXDELTABOX_CODITHECK.WELLCOMEFORM.RESOURCES
^E:\PROGETPROGRAM\MESAPP\APPWINDOWSFORM\AMGT32MXDELTABOXA_CODITHECK\AMGT32MXDELTABOX_CODITHECK\AMGTPROPRIETEFORM.RESX|E:\PROGETPROGRAM\MESAPP\APPWINDOWSFORM\AMGT32MXDELTABOXA_CODITHECK\AMGT32MXDELTABOX_CODITHECK\FORM1.RESX|E:\PROGETPROGRAM\MESAPP\APPWINDOWSFORM\AMGT32MXDELTABOXA_CODITHECK\AMGT32MXDELTABOX_CODITHECK\MESSAGEFORM.RESX|E:\PROGETPROGRAM\MESAPP\APPWINDOWSFORM\AMGT32MXDELTABOXA_CODITHECK\AMGT32MXDELTABOX_CODITHECK\OPTIONANSFORM.RESX|E:\PROGETPROGRAM\MESAPP\APPWINDOWSFORM\AMGT32MXDELTABOXA_CODITHECK\AMGT32MXDELTABOX_CODITHECK\PROPERTIES\RESOURCES.RESX|E:\PROGETPROGRAM\MESAPP\APPWINDOWSFORM\AMGT32MXDELTABOXA_CODITHECK\AMGT32MXDELTABOX_CODITHECK\USINGINFO.RESX|E:\PROGETPROGRAM\MESAPP\APPWINDOWSFORM\AMGT32MXDELTABOXA_CODITHECK\AMGT32MXDELTABOX_CODITHECK\WELLCOMEFORM.RESX
E:\PROGETPROGRAM\MESAPP\APPWINDOWSFORM\AMGT32MXDELTABOXA_CODITHECK\AMGT32MXDELTABOX_CODITHECK\OBJ\X86\DEBUG\AMGT32MXDELTABOX_CODITHECK.AMGTPROPRIETEFORM.RESOURCES
E:\PROGETPROGRAM\MESAPP\APPWINDOWSFORM\AMGT32MXDELTABOXA_CODITHECK\AMGT32MXDELTABOX_CODITHECK\OBJ\X86\DEBUG\AMGT32MXDELTABOX_CODITHECK.MXDELTABOXFORM.RESOURCES
E:\PROGETPROGRAM\MESAPP\APPWINDOWSFORM\AMGT32MXDELTABOXA_CODITHECK\AMGT32MXDELTABOX_CODITHECK\OBJ\X86\DEBUG\AMGT32MXDELTABOX_CODITHECK.MESSAGEFORM.RESOURCES
E:\PROGETPROGRAM\MESAPP\APPWINDOWSFORM\AMGT32MXDELTABOXA_CODITHECK\AMGT32MXDELTABOX_CODITHECK\OBJ\X86\DEBUG\AMGT32MXDELTABOX_CODITHECK.OPTIONANSFORM.RESOURCES
E:\PROGETPROGRAM\MESAPP\APPWINDOWSFORM\AMGT32MXDELTABOXA_CODITHECK\AMGT32MXDELTABOX_CODITHECK\OBJ\X86\DEBUG\AMGT32MXDELTABOX_CODITHECK.PROPERTIES.RESOURCES.RESOURCES
E:\PROGETPROGRAM\MESAPP\APPWINDOWSFORM\AMGT32MXDELTABOXA_CODITHECK\AMGT32MXDELTABOX_CODITHECK\OBJ\X86\DEBUG\AMGT32MXDELTABOX_CODITHECK.USINGINFO.RESOURCES
E:\PROGETPROGRAM\MESAPP\APPWINDOWSFORM\AMGT32MXDELTABOXA_CODITHECK\AMGT32MXDELTABOX_CODITHECK\OBJ\X86\DEBUG\AMGT32MXDELTABOX_CODITHECK.WELLCOMEFORM.RESOURCES
